{
  "shell-version": [
    "3.10",
    "3.12"
  ],
  "uuid": "<$= extensionName $>@<$= vendorName $>",
  "name": "<$= extensionName $>",
  "original-author": "nk",
  "url": "http://dev.k46.net",
  "description": "Some Description <$= extensionDescription $>"
}
