{
  "name": "<$= extensionName $>",
  "description": "<$= extensionDescription $>",
  "version": "0.0.1",
  "dependencies": {},
  "author": {
    "name": "nk"
  },
  "config": {
    "gnome-shell-extension": {
      "uuid" : "<$= extensionName $>@<$= vendorName $>",
      "name" : "<$= extensionName $>",
      "install-dir" : "<%= env.HOME %>/.local/share/gnome-shell/extensions/"
    }
  },
  "devDependencies": {
    "grunt": "~0.4.5",
    "grunt-cli": "^0.1.13",
    "grunt-contrib-jshint": "~0.11.3",
    "grunt-contrib-nodeunit": "^0.4.1",
    "grunt-contrib-watch": "^0.6.1",
    "grunt-mocha-cli": "^1.12.0",
    "load-grunt-tasks": "^3.1.0",
    "jshint-stylish": "^1.0.1",
    "time-grunt": "^1.1.0",
    "grunt-contrib-concat": "~0.5.1",
    "grunt-contrib-uglify": "~0.9.2",
    "grunt-babel": "~5.0.1",
    "grunt-contrib-copy": "~0.8.1",
    "grunt-contrib-clean": "~0.6.0",
    "grunt-shell": "~1.1.2",
    "shelljs": "~0.5.3",
    "node-gsettings": "~0.1.9",
    "lodash": "~3.10.1"
  }
}
